{
  "type": "service_account",
  "project_id": "insacool-5611c",
  "private_key_id": "af159879369ef3c2dc8cc0b2811c3a6a1fc48c44",
  "private_key": "-----BEGIN PRIVATE KEY-----\nMIIEvQIBADANBgkqhkiG9w0BAQEFAASCBKcwggSjAgEAAoIBAQCstaBy88l2vpxL\n245DXFfOqqEdAzG7WVVTqTsXhV6GnmwNcOZRtZIrmJW8i/RD+V0ag3C671jVMmFX\nRQaqquv6DFjNwiDBrp7Ebvfepbep4Ycq5j65MvCNJFcgXQnmopIzmQqfD4YtjPwm\nT1XG1oxpu9Tdql0EtYFa1IG4s1NkFwpF0fT3oLUNUsH+LKFwudii75BKvRSXdsvC\neJrBDblMq4t5T/mUZ7aQrQOGVBXOhHsrcXliOMLXGRBPIX3e4OP6KTNRS17fb0i/\n/6fB/cPotxpoU78DEGXO9WUVPWOaRC5JoV3m1xPmt7zybFZDz5PaVT3q1BlMjpSe\nPP1XsOftAgMBAAECggEAAxlQ20crCf2nux0Me4JvE+b6tD/QAbXRDWAnuTIRgmEE\n0iVAs14f6jbXFvaRkoepUetiV4RUZ8zl3hA/wJ+yU2lVzZP/t6HyY4Fp4qg+uFEI\nNm7tA1svNu/G6BkrRI9jCAMlY48T1VeRLanLlvastyKhkjxMkM6l7HM22abOu/4T\nS0yLvRLqELCmdlSg2JjhGo1SNXiEKDAZRkrBGkkWcRu37sTlHUWhzbS4jg07VQbm\nCInYxtqROl62+XaLbn/zL+o13reKJlEmU6T1jZdk3qaNE4PF2t7TY8Cg54PtQW/m\nGbAldjBNyAQ5GDKNM8+ZiVxlpC8eoG9qxaRxezgAyQKBgQDVHFyoZn5hmfPVuHM2\n8x/ensR1nA/sjjxD1FtjZsm7kcyhgvpAtJeLcWmrchWM4ZTn5NjM/cCZ4TS4gp4Q\nzlTxYGAT9F8lx00qlaxbjjl5x5tZd7Se90TsR3s8eOtyvhdBnJrF7N79jlQDnDcw\nUAN5icpS3RXaSfo4RW1joj7E6QKBgQDPd8HQNu+I5F2snd/EBq/Ug4prVP0GgHAK\nHzMi6ory7d5zkjFkJtI9Ak2lcwJrergDAdQXjJQnO4hvDekiWMJL2hWnzkGuoWJK\nZ11uqSf81dGYQGNSVycypme14ukcz6kGYdQSfPfbpBg6xzfDq+PBt+AFbrWGWaID\nQeMcv6B4ZQKBgCbvxaYnA9RFUp2r07EofpwoGfD7EJXB7xTdic0BjL4uh1rDGYIU\n/NNHZ20hrPpOhOxRjaL2gegbk4xaoRKlADQRzbwXnALFBT5Qlmsr8yhi5elUy7V3\nrCoXbVbBKROP06PzPvwGqT9eb88xDYxQMjJUkJjPOBzoA0WgubnIfPtxAoGBAMPe\na2OZSeIyv+GFF0opif0Xxyn4Df4CakSUGiIfztj1C+yOnATSxfAFaasG/sTcEjf8\nlPE6rnCvuuol9vGPXLhiB8nqZ4ZoJLTcC5C7MN56O6wDNgH5+C7Qfd9xf+XMg+Zb\nm+1sgFCkBqAPjy0z7g3o/B4E3Gof21456SIuJGElAoGAMzvvLJo8/M+/z0idrEtR\naiMyAqWt3+Q5eQtlpgnBqowvw2H4vQv7lMNQ+owwF76APvvIIX+kfLlFO82trNjG\nhQ/2l9uUe5DIcZicLH4QtR6h1iteaag3etd6vGsiytwdNaWvc7ZbT8bfP+YSBMMu\nBVb0Kya8VlOuod2+DFb3X00=\n-----END PRIVATE KEY-----\n",
  "client_email": "prueba@insacool-5611c.iam.gserviceaccount.com",
  "client_id": "115860719336572219592",
  "auth_uri": "https://accounts.google.com/o/oauth2/auth",
  "token_uri": "https://oauth2.googleapis.com/token",
  "auth_provider_x509_cert_url": "https://www.googleapis.com/oauth2/v1/certs",
  "client_x509_cert_url": "https://www.googleapis.com/robot/v1/metadata/x509/prueba%40insacool-5611c.iam.gserviceaccount.com"
}
